module gitlab.com/meltoroun/helloworld-go

go 1.17

require (
	github.com/goombaio/namegenerator v0.0.0-20181006234301-989e774b106e // indirect
	gitlab.com/stud777/stuff v0.0.0-20221023200401-60e07c05dda4 // indirect
)
